<svg width="32" height="32" viewBox="0 0 32 32" fill="none" xmlns="http://www.w3.org/2000/svg">
<path fill-rule="evenodd" clip-rule="evenodd" d="M16 0C7.16357 0 0 7.16345 0 16C0 24.8365 7.16357 32 16 32C24.8364 32 32 24.8365 32 16C32 7.16345 24.8364 0 16 0ZM17.6675 16.7028V25.4077H14.0659V16.7031H12.2666V13.7034H14.0659V11.9024C14.0659 9.4552 15.082 8 17.9688 8H20.3721V11.0001H18.8696C17.7461 11.0001 17.6719 11.4193 17.6719 12.2017L17.6675 13.7031H20.3892L20.0703 16.7028H17.6675Z" fill="#121212"/>
</svg>
