<svg width="32" height="33" viewBox="0 0 32 33" fill="none" xmlns="http://www.w3.org/2000/svg">
<path fill-rule="evenodd" clip-rule="evenodd" d="M16 0C7.16357 0 0 7.16345 0 16C0 24.8365 7.16357 32 16 32C24.8364 32 32 24.8365 32 16C32 7.16345 24.8364 0 16 0ZM16.2666 7.46667C21.707 7.46667 26.1333 11.0327 26.1333 15.4158C26.1333 17.1701 25.4482 18.7499 24.0186 20.3066C21.9487 22.6721 17.3198 25.5532 16.2666 25.9938C15.2139 26.4343 15.3691 25.7134 15.4121 25.4657L15.5527 24.6273C15.5767 24.4464 15.6016 24.1934 15.5752 23.9735C15.5654 23.8893 15.5483 23.8101 15.521 23.7415C15.4102 23.4689 14.9731 23.3273 14.6514 23.2585C9.91016 22.6362 6.3999 19.3453 6.3999 15.4158C6.3999 11.0327 10.8267 7.46667 16.2666 7.46667Z" transform="translate(0 0.227051)" fill="#121212"/>
<path fill-rule="evenodd" clip-rule="evenodd" d="M0.876271 0H0.190583C0.0854533 0 0 0.0882139 0 0.196591V4.60341C0 4.71198 0.0854533 4.8 0.190583 4.8H0.876271C0.981401 4.8 1.06667 4.71198 1.06667 4.60341V0.196591C1.06667 0.0882139 0.981401 0 0.876271 0Z" transform="translate(13.3335 13.5604)" fill="#121212"/>
<path fill-rule="evenodd" clip-rule="evenodd" d="M4.06624 0H3.34441C3.23373 0 3.14397 0.0882139 3.14397 0.196591V2.8147L1.08916 0.0874384C1.08442 0.0804588 1.07909 0.073867 1.07357 0.0674691L1.07219 0.0663058C1.06824 0.0618467 1.0643 0.0579691 1.06016 0.0540916C1.05897 0.0529284 1.05779 0.051959 1.05641 0.0507957C1.05305 0.0476937 1.0495 0.0447855 1.04576 0.0420713C1.04418 0.0405202 1.0424 0.039357 1.04063 0.0379998C1.03708 0.0356733 1.03372 0.0331529 1.03017 0.0310203C1.0282 0.0296631 1.02623 0.0284999 1.02406 0.0275305C1.0205 0.0253979 1.01695 0.0232652 1.0134 0.0215203C1.01123 0.0205509 1.00926 0.0193877 1.00709 0.0186122C1.00334 0.0168673 0.999593 0.0151224 0.995648 0.0137652C0.99328 0.0129897 0.991307 0.0122142 0.989137 0.0114387C0.985192 0.0100816 0.981246 0.00872445 0.977104 0.00775507C0.974934 0.00697956 0.972566 0.00659181 0.970199 0.0058163C0.966254 0.0050408 0.962505 0.00407141 0.958757 0.0032959C0.955995 0.00290815 0.953036 0.0025204 0.950274 0.00232652C0.946723 0.00155101 0.943172 0.00135714 0.939621 0.000969384C0.936268 0.00058163 0.932914 0.00058163 0.929363 0.000387753C0.926799 0.000387753 0.924826 0 0.922261 0H0.200629C0.0899575 0 0 0.0882139 0 0.196591V4.60341C0 4.71198 0.0899575 4.8 0.200629 4.8H0.922261C1.03313 4.8 1.12289 4.71198 1.12289 4.60341V1.98607L3.18027 4.71683C3.19448 4.7366 3.21203 4.75269 3.23117 4.76549C3.23176 4.76588 3.23255 4.76646 3.23314 4.76704C3.23728 4.76956 3.24143 4.77208 3.24557 4.77441C3.24754 4.77557 3.24932 4.77635 3.25129 4.77732C3.25425 4.77906 3.2576 4.78061 3.26076 4.78197C3.26411 4.78333 3.26707 4.78468 3.27062 4.78604C3.2726 4.78682 3.27457 4.78759 3.27654 4.78817C3.28128 4.78992 3.28562 4.79128 3.29015 4.79263C3.29114 4.79263 3.29213 4.79302 3.29311 4.79321C3.30949 4.79748 3.32665 4.8 3.34441 4.8H4.06624C4.1771 4.8 4.26667 4.71198 4.26667 4.60341V0.196591C4.26667 0.0882139 4.1771 0 4.06624 0Z" transform="translate(14.9336 13.5604)" fill="#121212"/>
<path fill-rule="evenodd" clip-rule="evenodd" d="M3.00508 3.6965H1.09396V0.196971C1.09396 0.0882104 1.0065 0 0.898853 0H0.195302C0.0874632 0 0 0.0882104 0 0.196971V4.60284V4.60322C0 4.65615 0.0209527 4.70403 0.0545924 4.73932C0.0553613 4.74029 0.0561302 4.74126 0.0572836 4.74223C0.0582447 4.7432 0.0592059 4.74397 0.060167 4.74494C0.0953445 4.77906 0.142632 4.8 0.19511 4.8H3.00508C3.11292 4.8 3.2 4.7116 3.2 4.60284V3.89347C3.2 3.78471 3.11292 3.6965 3.00508 3.6965Z" transform="translate(9.6001 13.5604)" fill="#121212"/>
<path fill-rule="evenodd" clip-rule="evenodd" d="M3.00508 1.1035C3.11292 1.1035 3.2 1.01549 3.2 0.906531V0.197165C3.2 0.0884042 3.11292 0 3.00508 0H0.195302H0.194918C0.142248 0 0.0947678 0.0213256 0.0595903 0.0556404C0.0588214 0.0564158 0.0578603 0.0569975 0.0572836 0.0577729C0.0561302 0.0589361 0.0551691 0.0600994 0.054208 0.0612626C0.0207605 0.0965467 0 0.144238 0 0.196971V0.197165V4.60303V4.60322C0 4.65615 0.0209527 4.70403 0.0545924 4.73932C0.0553613 4.74029 0.0563225 4.74145 0.0572836 4.74223C0.0580525 4.7432 0.0592059 4.74417 0.060167 4.74494C0.0951523 4.77887 0.142632 4.8 0.194918 4.8H3.00508C3.11292 4.8 3.2 4.7116 3.2 4.60303V3.89347C3.2 3.7849 3.11292 3.6965 3.00508 3.6965H1.09416V2.95165H3.00508C3.11292 2.95165 3.2 2.86344 3.2 2.75468V2.04532C3.2 1.93656 3.11292 1.84815 3.00508 1.84815H1.09416V1.1035H3.00508Z" transform="translate(19.7334 13.5604)" fill="#121212"/>
</svg>
