<svg width="32" height="32" viewBox="0 0 32 32" fill="none" xmlns="http://www.w3.org/2000/svg">
<path fill-rule="evenodd" clip-rule="evenodd" d="M32 16C32 24.8365 24.8364 32 16 32C7.16357 32 0 24.8365 0 16C0 7.16345 7.16357 0 16 0C24.8364 0 32 7.16345 32 16ZM16.5239 24.9017H16.5278C21.7734 24.8996 26.0396 20.6322 26.0415 15.3877C26.0425 12.8456 25.0542 10.4553 23.2578 8.65698C21.4614 6.85858 19.0728 5.8678 16.5273 5.8667C11.2837 5.8667 7.01562 10.1345 7.01318 15.3802C7.0127 17.057 7.45068 18.6937 8.2832 20.1366L6.93359 25.0667L11.9771 23.7437C13.3667 24.5016 14.9316 24.9012 16.5239 24.9017Z" fill="#121212"/>
<path fill-rule="evenodd" clip-rule="evenodd" d="M3.87988 14.719L3.59131 14.5476L0.598145 15.3328L1.39697 12.4147L1.20898 12.1155C0.417481 10.8564 -0.000487854 9.40131 4.27326e-07 7.9071C0.00195355 3.54712 3.54932 0 7.91113 0C10.0234 0.000732422 12.0088 0.82428 13.5015 2.31903C14.9946 3.81378 15.8164 5.80054 15.8154 7.91351C15.814 12.2738 12.2666 15.8213 7.90772 15.8213C6.48584 15.8207 5.09424 15.4395 3.87988 14.719ZM12.375 9.96228C12.541 10.0425 12.6528 10.0966 12.7007 10.1765C12.7603 10.2756 12.7603 10.7515 12.562 11.3069C12.3638 11.8622 11.4141 12.369 10.9575 12.4373C10.5479 12.4985 10.0298 12.524 9.45996 12.3431C9.11475 12.2335 8.67236 12.0872 8.10498 11.8423C5.875 10.8795 4.36816 8.71765 4.08496 8.3111L4.04395 8.25275C3.92529 8.09412 3.07324 6.96368 3.07324 5.79358C3.07324 4.69897 3.61084 4.125 3.8584 3.8606L3.90527 3.81036C4.03906 3.66394 4.18848 3.58508 4.32031 3.54608C4.40234 3.52167 4.47803 3.51288 4.53906 3.51288C4.69775 3.51288 4.85645 3.51434 4.99463 3.5213C5.14063 3.52863 5.33691 3.46582 5.52979 3.92938C5.72754 4.4054 6.20313 5.5755 6.2627 5.69452C6.32227 5.81354 6.36182 5.95227 6.28223 6.11102C6.20313 6.26953 6.16357 6.36877 6.04492 6.50757C6.0044 6.55457 5.96289 6.60535 5.92139 6.65607C5.83984 6.75494 5.75879 6.85364 5.68799 6.92407C5.62402 6.9881 5.55859 7.05505 5.5332 7.14056C5.51172 7.21338 5.52002 7.29974 5.58398 7.40924C5.72266 7.64722 6.19971 8.42566 6.90625 9.05603C7.66602 9.73358 8.32666 10.02 8.66113 10.1652C8.72656 10.1935 8.7793 10.2165 8.81836 10.236C9.05566 10.355 9.19434 10.3351 9.33301 10.1765C9.47168 10.0178 9.92725 9.4823 10.0859 9.24432C10.2441 9.00641 10.4028 9.04602 10.6206 9.12537C10.8389 9.20477 12.0073 9.77979 12.2451 9.89874L12.375 9.96228Z" transform="translate(8.61963 7.47363)" fill="#121212"/>
</svg>
