<svg width="28" height="28" viewBox="0 0 28 28" fill="none" xmlns="http://www.w3.org/2000/svg">
<g id="Facebook">
<path id="Combined Shape" fill-rule="evenodd" clip-rule="evenodd" d="M14 0C6.26801 0 0 6.26807 0 14C0 21.7319 6.26801 28 14 28C21.732 28 28 21.7319 28 14C28 6.26807 21.732 0 14 0ZM15.4593 14.615V22.2317H12.3079V14.6152H10.7334V11.9905H12.3079V10.4146C12.3079 8.27319 13.1969 7 15.7227 7H17.8256V9.625H16.5112C15.5279 9.625 15.4629 9.99194 15.4629 10.6765L15.4593 11.9902H17.8405L17.5618 14.615H15.4593Z" fill="white"/>
</g>
</svg>
