<svg width="155" height="160" viewBox="0 0 155 160" fill="none" xmlns="http://www.w3.org/2000/svg">
<path d="M19.4407 53.2948C19.7533 50.6069 20.0033 48.044 20.2534 45.4185C21.1285 36.4796 22.0036 27.6031 22.8788 18.6641C23.3164 14.3509 26.8169 11.6004 31.4427 11.9755C35.8809 12.3506 40.2567 12.8506 44.6324 13.2882C51.5085 13.9758 58.3847 14.6634 65.3233 15.3511C65.5733 15.3511 65.8234 15.3511 66.0734 15.4136C67.5112 15.6636 68.4488 16.6638 68.3238 17.914C68.1988 19.2267 67.0111 20.1018 65.4483 19.9143C60.1349 19.4142 54.7591 18.8516 49.4457 18.3516C43.2572 17.7265 37.1311 17.1013 30.9426 16.5388C28.6297 16.3512 27.5671 17.1639 27.317 19.5393C26.3794 29.8535 25.3792 40.1052 24.379 50.3569C24.004 54.17 23.6289 57.9831 23.1913 61.9838C23.8164 62.0463 24.379 62.0463 24.9416 62.0463C25.7543 62.1088 26.1293 61.7962 26.1918 60.9211C26.8169 54.545 27.442 48.169 28.0671 41.7929C28.3172 39.355 28.5047 36.9171 28.7548 34.4792C29.0048 32.4164 29.9425 30.7911 31.9428 29.9785C34.7557 28.7908 37.0061 26.978 38.6939 24.4151C39.8191 22.7898 41.5694 22.1647 43.5072 22.3522C49.1956 22.8523 54.8841 23.4774 60.5725 24.04C62.1978 24.2275 63.1354 25.2277 63.0104 26.5404C62.8854 27.8531 61.7602 28.7283 60.1975 28.5407C54.8841 28.0407 49.6332 27.5406 44.3198 26.978C43.0696 26.853 42.3195 27.103 41.5694 28.1657C39.8191 30.6661 37.4437 32.5414 34.6307 33.7916C34.0681 34.0417 33.3805 34.7293 33.318 35.2293C32.3804 44.0433 31.5052 52.9198 30.5676 61.9838C33.318 61.9838 36.006 61.7962 38.6314 62.0463C40.9443 62.2338 42.257 61.4212 43.5072 59.4834C56.0093 40.9178 68.6364 22.4772 81.2634 3.97418C84.2639 -0.401546 88.3896 -1.21418 92.8279 1.78632C107.768 11.9755 122.708 22.1022 137.585 32.2914C142.211 35.4794 142.961 39.355 139.836 44.0433C137.835 46.9813 135.835 49.9193 133.71 53.0448C134.772 53.1698 135.585 53.1698 136.398 53.2948C140.398 53.8574 143.149 56.9204 143.086 61.0461C143.024 62.7964 143.336 64.1091 144.774 65.4218C146.774 67.1721 147.462 69.6725 147.462 72.3605C147.462 78.8616 147.462 85.3626 147.462 91.8637C147.462 92.4263 147.462 92.9889 147.462 93.739C148.275 93.739 148.9 93.739 149.587 93.739C152.963 93.8641 154.963 95.9269 154.963 99.3025C154.963 106.991 154.963 114.743 154.963 122.431C154.963 126.244 153.025 128.182 149.275 128.307C148.712 128.307 148.15 128.307 147.462 128.307C147.462 129.995 147.462 131.495 147.462 132.996C147.462 138.496 147.462 144.06 147.462 149.561C147.462 155.312 143.399 159.687 137.648 160C137.21 160 136.835 160 136.398 160C94.6407 160 52.8212 160 11.0643 160C5.37589 160 1.37523 157.125 0.187531 152.061C0 151.374 0 150.623 0 149.873C0 124.057 0 98.1773 0 72.3605C0 68.4848 1.68778 65.4844 5.00083 63.359C5.4384 63.0464 5.87597 62.3588 5.87597 61.7962C6.0635 56.0453 9.064 53.1698 14.815 53.1073C16.3152 53.2948 17.8154 53.2948 19.4407 53.2948ZM4.56326 143.622C4.56326 145.873 4.43823 147.936 4.62577 149.998C4.75079 151.186 5.18836 152.436 5.81346 153.436C7.12618 155.437 9.25153 155.562 11.3769 155.562C52.9463 155.562 94.5156 155.562 136.085 155.562C136.835 155.562 137.523 155.562 138.273 155.437C140.398 155.124 142.461 153.499 142.711 151.374C142.961 148.873 142.774 146.31 142.774 143.622C142.023 143.622 141.336 143.622 140.711 143.622C104.892 143.622 69.0114 143.622 33.193 143.622C32.5679 143.622 31.9428 143.622 31.3177 143.56C30.0675 143.435 29.1298 142.435 29.1923 141.309C29.3174 139.997 30.005 139.184 31.3802 139.122C31.9428 139.059 32.5054 139.122 33.068 139.122C68.9489 139.122 104.83 139.122 140.711 139.122C141.398 139.122 142.023 139.122 142.711 139.122C142.711 135.496 142.711 131.995 142.711 128.432C141.961 128.432 141.336 128.432 140.773 128.432C134.522 128.432 128.271 128.432 122.02 128.432C114.206 128.37 107.955 124.432 105.267 117.868C100.642 106.304 108.768 93.9891 121.27 93.8641C127.896 93.8015 134.522 93.8641 141.086 93.8641C141.648 93.8641 142.211 93.8641 142.836 93.8641C142.836 90.2385 142.836 86.8004 142.836 83.2998C96.7035 83.2998 50.6959 83.2998 4.75079 83.2998C4.75079 101.928 4.75079 120.493 4.75079 139.122C5.37589 139.122 5.87597 139.122 6.37605 139.122C9.6891 139.122 13.0647 139.122 16.3777 139.122C18.1905 139.122 19.1282 139.934 19.1282 141.372C19.1282 142.81 18.1905 143.56 16.3777 143.622C15.6901 143.622 15.0025 143.622 14.3774 143.622C11.1268 143.622 7.93881 143.622 4.56326 143.622ZM4.68828 78.4865C50.7584 78.4865 96.766 78.4865 142.899 78.4865C142.899 76.0486 143.211 73.6732 142.774 71.4228C142.524 70.0476 141.461 68.5474 140.336 67.6722C139.273 66.9221 137.585 66.7346 136.21 66.6721C94.5781 66.6095 52.9463 66.6095 11.3769 66.6721C10.5642 66.6721 9.6891 66.7346 8.87647 66.9221C6.75112 67.2972 4.87581 69.1725 4.75079 71.2353C4.50074 73.6107 4.68828 75.9861 4.68828 78.4865ZM105.455 62.1088C107.705 62.1088 109.831 62.1713 111.956 62.0463C112.581 61.9838 113.456 61.5462 113.769 61.0461C116.394 57.2955 118.957 53.4824 121.583 49.7318C122.145 48.9191 122.145 48.294 121.708 47.4814C120.27 44.6059 119.645 41.5429 119.895 38.2924C119.957 37.6673 119.52 36.7921 119.02 36.417C111.518 31.2287 103.892 26.0403 96.3284 20.9145C95.8284 20.5394 94.8282 20.4144 94.2656 20.6644C91.3276 21.9772 88.2646 22.6648 85.0141 22.2897C83.9514 22.1647 83.3263 22.6023 82.7012 23.4774C74.2623 35.917 65.7609 48.3565 57.322 60.7961C57.0719 61.1711 56.8844 61.5462 56.5719 62.1088C59.9474 62.1088 63.0729 62.0463 66.1985 62.1713C67.5737 62.2338 68.0113 61.7962 68.2613 60.421C69.574 53.1073 73.7622 47.9815 80.8259 45.6686C87.9521 43.3557 94.3906 44.8559 99.8915 50.0443C103.205 53.2323 104.955 57.233 105.455 62.1088ZM150.337 98.4898C149.587 98.4273 148.9 98.3648 148.212 98.3648C140.898 98.3648 133.647 98.3648 126.333 98.3648C124.146 98.3648 121.958 98.3023 119.77 98.4898C115.457 98.9274 112.081 101.115 110.081 104.928C105.455 113.68 111.393 123.681 121.333 123.744C130.459 123.869 139.648 123.744 148.775 123.807C150.15 123.807 150.4 123.244 150.4 122.056C150.337 114.743 150.4 107.366 150.4 100.053C150.462 99.615 150.4 99.1149 150.337 98.4898ZM47.5079 61.9213C49.6332 62.4213 51.0084 62.0463 52.2586 60.171C61.1351 46.9188 70.1991 33.7291 79.2006 20.5394C80.5758 18.4766 82.4511 17.5389 84.889 17.789C87.5145 18.039 90.0774 17.6014 92.4528 16.4137C94.5156 15.2886 96.5785 15.4761 98.5163 16.7888C100.204 17.914 101.892 19.1017 103.517 20.2269C109.581 24.3525 115.644 28.4782 121.708 32.6039C123.645 33.9166 124.833 35.5419 124.583 37.9173C124.208 40.7303 124.708 43.2932 126.021 45.7936C127.209 48.044 126.959 50.0443 125.583 52.1071C124.333 53.9199 123.145 55.7327 121.895 57.5455C120.895 58.9833 119.957 60.421 118.895 61.9838C121.02 62.4213 122.395 62.1713 123.645 60.2335C127.709 53.9199 132.022 47.7939 136.273 41.6054C137.96 39.105 137.773 37.9173 135.21 36.167C120.27 26.0403 105.33 15.8511 90.4525 5.72447C88.0146 4.03669 86.7018 4.28673 85.0141 6.78714C76.0126 20.0393 66.9486 33.2915 57.9471 46.5437C54.509 51.6071 51.0709 56.6704 47.5079 61.9213ZM100.704 61.9838C100.704 55.1701 93.7655 48.9816 86.5143 49.1692C77.4503 49.4192 72.5745 56.9829 72.6995 61.9838C82.0136 61.9838 91.3276 61.9838 100.704 61.9838ZM127.771 62.0463C131.584 62.0463 135.022 62.0463 138.523 62.0463C138.773 60.296 138.46 58.7957 137.21 58.5457C135.085 58.1081 132.834 58.1706 130.647 57.9831C130.522 57.9831 130.397 58.1706 130.334 58.2957C129.521 59.4208 128.709 60.6085 127.771 62.0463ZM10.6268 62.1088C13.0647 62.1088 15.4401 62.1088 17.8154 62.0463C18.128 62.0463 18.6281 61.6087 18.6906 61.2962C18.8781 60.2335 18.9406 59.1708 19.0031 57.9206C17.2529 57.9206 15.6276 57.9206 14.0023 57.9206C11.5019 57.9206 10.3767 59.2958 10.6268 62.1088Z" fill="black"/>
<path d="M18.4406 9.25153C18.4406 14.3149 14.3149 18.5031 9.25152 18.5031C4.18819 18.5031 0 14.3149 0 9.25153C0 4.1882 4.12568 0.0625103 9.25152 0C14.3149 0 18.4406 4.12569 18.4406 9.25153ZM4.56325 9.25153C4.56325 11.8145 6.62609 13.8773 9.25152 13.8773C11.8144 13.8773 13.9398 11.7519 13.9398 9.25153C13.9398 6.68861 11.6894 4.50074 9.1265 4.50074C6.56358 4.62576 4.56325 6.68861 4.56325 9.25153Z" transform="translate(112.581 101.865)" fill="black"/>
</svg>
