<svg width="28" height="28" viewBox="0 0 28 28" fill="none" xmlns="http://www.w3.org/2000/svg">
<g id="Twitter">
<path id="Combined Shape" fill-rule="evenodd" clip-rule="evenodd" d="M14 0C6.26801 0 0 6.26807 0 14C0 21.7319 6.26801 28 14 28C21.732 28 28 21.7319 28 14C28 6.26807 21.732 0 14 0ZM13.6101 11.864L13.5807 11.3796C13.4926 10.124 14.2662 8.97705 15.4903 8.53223C15.9407 8.37402 16.7046 8.35425 17.204 8.49268C17.3998 8.552 17.772 8.74976 18.0364 8.92773L18.5162 9.25391L19.045 9.08594C19.3388 8.99683 19.7305 8.84863 19.9068 8.74976C20.0732 8.66089 20.2202 8.61133 20.2202 8.64111C20.2202 8.80908 19.8578 9.38257 19.5543 9.69873C19.1429 10.1438 19.2605 10.1833 20.0928 9.88672C20.5923 9.71851 20.6021 9.71851 20.5042 9.90649C20.4454 10.0054 20.1418 10.3513 19.8187 10.6677C19.2703 11.2114 19.2409 11.2708 19.2409 11.7256C19.2409 12.4275 18.908 13.8906 18.575 14.6914C17.9581 16.1941 16.636 17.7463 15.314 18.5273C13.4534 19.6248 10.9758 19.9016 8.89001 19.259C8.1947 19.0415 7 18.4878 7 18.3889C7 18.3594 7.3623 18.3198 7.80298 18.3098C8.72351 18.29 9.64404 18.033 10.4274 17.5784L10.9562 17.262L10.3491 17.0542C9.48737 16.7578 8.71375 16.0754 8.51788 15.4329C8.45911 15.2253 8.4787 15.2153 9.0271 15.2153L9.59509 15.2056L9.11523 14.9783C8.54724 14.6914 8.02826 14.207 7.77362 13.7126C7.58759 13.3567 7.35254 12.457 7.42108 12.3879C7.44067 12.3582 7.6463 12.4175 7.88135 12.4966C8.55707 12.7439 8.6452 12.6846 8.25348 12.2693C7.51904 11.5178 7.29376 10.4009 7.6463 9.34302L7.81281 8.86841L8.45911 9.51099C9.78113 10.8062 11.3382 11.5771 13.1204 11.8047L13.6101 11.864Z" fill="white"/>
</g>
</svg>
