<svg width="28" height="28" viewBox="0 0 28 28" fill="none" xmlns="http://www.w3.org/2000/svg">
<g id="WhatsApp">
<path id="Combined Shape" fill-rule="evenodd" clip-rule="evenodd" d="M28 14C28 21.7319 21.732 28 14 28C6.26801 28 0 21.7319 0 14C0 6.26807 6.26801 0 14 0C21.732 0 28 6.26807 28 14ZM14.458 21.7888H14.4615C19.0514 21.7871 22.7844 18.0532 22.7862 13.4641C22.7871 11.2397 21.922 9.14819 20.3503 7.57471C18.7785 6.00122 16.6884 5.13428 14.4614 5.1333C9.8728 5.1333 6.13828 8.86768 6.13644 13.4575C6.13583 14.9248 6.51917 16.3569 7.24768 17.6194L6.06665 21.9333L10.4798 20.7756C11.6957 21.439 13.0647 21.7886 14.458 21.7888Z" fill="white"/>
<path id="Combined Shape_2" fill-rule="evenodd" clip-rule="evenodd" d="M3.3949 12.8792L3.14224 12.7292L0.523438 13.4163L1.22244 10.8628L1.05792 10.6011C0.365266 9.49951 -0.000548699 8.22607 6.1774e-07 6.9187C0.0015265 3.10376 3.10553 0 6.92215 0C8.7703 0.000732422 10.5076 0.721191 11.814 2.02905C13.1203 3.33716 13.8394 5.07544 13.8386 6.92432C13.8371 10.7395 10.7331 13.8435 6.91943 13.8435H6.91663C5.67502 13.843 4.45725 13.5095 3.3949 12.8792ZM10.8293 8.7168C10.974 8.78687 11.0717 8.83423 11.1135 8.90381C11.1655 8.99072 11.1655 9.40698 10.9922 9.89307C10.8188 10.3789 9.98785 10.8223 9.58817 10.8821C9.22983 10.9355 8.77631 10.958 8.27805 10.7996C7.97592 10.7039 7.5885 10.5759 7.09222 10.3616C5.14185 9.51929 3.82391 7.62891 3.57517 7.27222L3.53882 7.2207L3.53696 7.21826C3.42618 7.07031 2.68945 6.08691 2.68945 5.06885C2.68945 4.1106 3.16022 3.6084 3.37686 3.3772L3.41748 3.3335C3.60812 3.12524 3.8335 3.07324 3.97217 3.07324C4.11081 3.07324 4.24963 3.07446 4.37082 3.08057C4.38574 3.0813 4.40128 3.0813 4.41733 3.08105C4.53857 3.08032 4.68973 3.07935 4.83884 3.43774C4.89618 3.57544 4.98007 3.77979 5.06857 3.99512C5.24756 4.43091 5.44537 4.91235 5.48016 4.98218C5.5322 5.08618 5.56683 5.20776 5.4975 5.34668L5.46814 5.40625C5.41614 5.51245 5.37781 5.59058 5.28952 5.6936C5.25452 5.73438 5.21835 5.77856 5.18216 5.82251C5.11084 5.90942 5.03958 5.99634 4.97748 6.05811C4.87335 6.16187 4.76495 6.27417 4.88629 6.48242C5.00763 6.69067 5.42508 7.37183 6.04346 7.92358C6.70783 8.51611 7.28531 8.7666 7.57831 8.8938C7.63571 8.9187 7.68216 8.93896 7.71625 8.95605C7.92416 9.06006 8.04553 9.04272 8.16687 8.90381C8.28821 8.76514 8.68686 8.29639 8.8255 8.08838C8.96414 7.88013 9.10288 7.91479 9.29349 7.98413C9.48419 8.05371 10.5069 8.55688 10.7149 8.66089C10.7557 8.6814 10.7939 8.69971 10.8293 8.7168Z" transform="translate(7.54199 6.53955)" fill="white"/>
</g>
</svg>
